{"data":[{"id":38,"question":"Sint quia aut qui nobis quidem id fuga.","answer":"Voluptatem porro ut dolorem tenetur facilis suscipit. Sapiente enim sint ea et. Nihil laborum eos sunt. Dolore eligendi rerum maiores aperiam sapiente. Expedita quo harum magnam recusandae quia.","status":"InActive","created_at":"2020-06-26"},{"id":26,"question":"Facilis modi ut et fuga.","answer":"Inventore delectus odio in excepturi consequatur. Nihil perspiciatis consequatur doloremque voluptas aut est architecto non. Repudiandae voluptas quos consequatur atque omnis omnis.","status":"InActive","created_at":"2020-06-27"},{"id":16,"question":"Nisi fugit beatae id totam consequuntur qui.","answer":"Eum quibusdam voluptatum consequatur at et. Sunt eum consequuntur eveniet corrupti occaecati sequi qui nisi. Nulla unde qui similique et voluptates et. Placeat deserunt veritatis aut tenetur inventore.","status":"Active","created_at":"2020-06-27"}],"links":{"first":"http:\/\/127.0.0.1:8000\/api\/v1\/faqs?page=1","last":"http:\/\/127.0.0.1:8000\/api\/v1\/faqs?page=17","prev":null,"next":"http:\/\/127.0.0.1:8000\/api\/v1\/faqs?page=2"},"meta":{"current_page":1,"from":1,"last_page":17,"path":"http:\/\/127.0.0.1:8000\/api\/v1\/faqs","per_page":"3","to":3,"total":49}}