{"data":[{"id":16,"name":"Chantale Pope Abc","publish_datetime":"23/10/2020 12:53 PM","content":"<p>Et est, perferendis .</p>","meta_title":"Hic vero eius expedi","cannonical_link":"https://www.google.com","meta_keywords":"Qui aspernatur velit","meta_description":"<p>Quae lorem rem in ea.</p>","status":2,"display_status":"Draft","categories":[{"id":2,"name":"quia ut optio","status":true,"display_status":"Active","created_at":"2020-10-15 10:35:08","created_by":"Gaylord Grimes","updated_at":"2020-10-15 10:35:08","updated_by":null},{"id":6,"name":"fugit impedit quia","status":true,"display_status":"Active","created_at":"2020-10-15 10:35:08","created_by":"Gaylord Grimes","updated_at":"2020-10-15 10:35:08","updated_by":null}],"tags":[{"id":2,"name":"sed","status":true,"display_status":"Active","created_at":"2020-10-15 10:35:08","created_by":"Gaylord Grimes","updated_at":"2020-10-15 10:35:08","updated_by":null}],"created_at":"2020-10-16","created_by":"Alan Whitmore","updated_at":"2020-10-16 07:42:41","updated_by":"Alan Whitmore"}],"links":{"first":"http://laravel-starter.local//api/v1/blogs?page=1","last":"http://laravel-starter.local//api/v1/blogs?page=15","prev":null,"next":"http://laravel-starter.local//api/v1/blogs?page=2"},"meta":{"current_page":1,"from":1,"last_page":15,"path":"http://laravel-starter.local//api/v1/blogs","per_page":1,"to":1,"total":15}}