{"data":[{"id":23,"title":"Aspernatur hic voluptatem molestiae.","status_label":"<label class='label label-success'>Active<\/label>","status":"Active","created_at":"2020-06-26","created_by":"Vipul"},{"id":21,"title":"Commodi consequatur velit odit odit.","status_label":"<label class='label label-danger'>Inactive<\/label>","status":"InActive","created_at":"2020-06-27","created_by":"Viral"}],"links":{"first":"http:\/\/127.0.0.1:8000\/api\/v1\/pages?page=1","last":"http:\/\/127.0.0.1:8000\/api\/v1\/pages?page=25","prev":null,"next":"http:\/\/127.0.0.1:8000\/api\/v1\/pages?page=2"},"meta":{"current_page":1,"from":1,"last_page":25,"path":"http:\/\/127.0.0.1:8000\/api\/v1\/pages","per_page":"2","to":2,"total":50}}